algas
…
## Funcin que imputa el valor central en las variables con NAs

(el valor con na que se imputa es la entrada 28 de po4)

impC <- imputar_central(algas_data)
impC

## # A tibble: 200 x 18
##    season river_size fluid_velocity max_ph min_o2    cl    no3   nh4  opo4   po4
##    <chr>  <chr>      <chr>           <dbl>  <dbl> <dbl>  <dbl> <dbl> <dbl> <dbl>
##  1 winter small      medium           8       9.8  60.8  6.24  578   105   170  
##  2 spring small      medium           8.35    8    57.8  1.29  370   429.  559. 
##  3 autumn small      medium           8.1    11.4  40.0  5.33  347.  126.  187. 
##  4 spring small      medium           8.07    4.8  77.4  2.30   98.2  61.2 139. 
##  5 autumn small      medium           8.06    9    55.4 10.4   234.   58.2  97.6
##  6 winter small      high             8.25   13.1  65.8  9.25  430    18.2  56.7
##  7 summer small      high             8.15   10.3  73.2  1.54  110    61.2 112. 
##  8 autumn small      high             8.05   10.6  59.1  4.99  206.   44.7  77.4
##  9 winter small      medium           8.7     3.4  22.0  0.886 103.   36.3  71  
## 10 winter small      high             7.93    9.9   8    1.39    5.8  27.2  46.6
## # ... with 190 more rows, and 8 more variables: chla <dbl>, a1 <dbl>, a2 <dbl>,
## #   a3 <dbl>, a4 <dbl>, a5 <dbl>, a6 <dbl>, a7 <dbl>
…
(el valor con na que se imputa es la entrada 28 de po4)

algas_data <- algas_data %>% mutate_at(c(1,2,3), list(as.factor))
impS5 <- imputar_por_similitud(algas_data, 5)

## Warning: The `x` argument of `as_tibble.matrix()` must have unique column names if `.name_repair` is omitted as of tibble 2.0.0.
## Using compatibility `.name_repair`.
## This warning is displayed once every 8 hours.
## Call `lifecycle::last_lifecycle_warnings()` to see where this warning was generated.

impS2 <- imputar_por_similitud(algas_data, 2)
impS5

## # A tibble: 200 x 19
##    season river_size fluid_velocity max_ph min_o2    cl    no3   nh4  opo4   po4
##    <fct>  <fct>      <fct>           <dbl>  <dbl> <dbl>  <dbl> <dbl> <dbl> <dbl>
##  1 winter small      medium           8       9.8  60.8  6.24  578   105   170  
##  2 spring small      medium           8.35    8    57.8  1.29  370   429.  559. 
##  3 autumn small      medium           8.1    11.4  40.0  5.33  347.  126.  187. 
##  4 spring small      medium           8.07    4.8  77.4  2.30   98.2  61.2 139. 
##  5 autumn small      medium           8.06    9    55.4 10.4   234.   58.2  97.6
##  6 winter small      high             8.25   13.1  65.8  9.25  430    18.2  56.7
##  7 summer small      high             8.15   10.3  73.2  1.54  110    61.2 112. 
##  8 autumn small      high             8.05   10.6  59.1  4.99  206.   44.7  77.4
##  9 winter small      medium           8.7     3.4  22.0  0.886 103.   36.3  71  
## 10 winter small      high             7.93    9.9   8    1.39    5.8  27.2  46.6
## # ... with 190 more rows, and 9 more variables: chla <dbl>, a1 <dbl>, a2 <dbl>,
## #   a3 <dbl>, a4 <dbl>, a5 <dbl>, a6 <dbl>, a7 <dbl>, row_num <int>

impS2

## # A tibble: 200 x 19
##    season river_size fluid_velocity max_ph min_o2    cl    no3   nh4  opo4   po4
##    <fct>  <fct>      <fct>           <dbl>  <dbl> <dbl>  <dbl> <dbl> <dbl> <dbl>
##  1 winter small      medium           8       9.8  60.8  6.24  578   105   170  
##  2 spring small      medium           8.35    8    57.8  1.29  370   429.  559. 
##  3 autumn small      medium           8.1    11.4  40.0  5.33  347.  126.  187. 
##  4 spring small      medium           8.07    4.8  77.4  2.30   98.2  61.2 139. 
##  5 autumn small      medium           8.06    9    55.4 10.4   234.   58.2  97.6
##  6 winter small      high             8.25   13.1  65.8  9.25  430    18.2  56.7
##  7 summer small      high             8.15   10.3  73.2  1.54  110    61.2 112. 
##  8 autumn small      high             8.05   10.6  59.1  4.99  206.   44.7  77.4
##  9 winter small      medium           8.7     3.4  22.0  0.886 103.   36.3  71  
## 10 winter small      high             7.93    9.9   8    1.39    5.8  27.2  46.6
## # ... with 190 more rows, and 9 more variables: chla <dbl>, a1 <dbl>, a2 <dbl>,
## #   a3 <dbl>, a4 <dbl>, a5 <dbl>, a6 <dbl>, a7 <dbl>, row_num <int>
…
